实验 (2)/A5-1/test.vcd
$date
	Tue Dec 13 16:27:09 2022
$end
$version
	Icarus Verilog
$end
$timescale
	1ns
$end
$scope module A51_tb $end
$var wire 1 ! Cipher $end
$var reg 64 " Key [63:0] $end
$var reg 1 # Krdy $end
$var reg 1 $ Plain $end
$var reg 1 % clk $end
$scope module A51_in_tb $end
$var wire 1 ! cipher $end
$var wire 1 % clk $end
$var wire 64 & key [63:0] $end
$var wire 1 # krdy $end
$var wire 1 $ plain $end
$var wire 64 ' knext [63:0] $end
$var reg 1 ( k $end
$var reg 64 ) kpre [63:0] $end
$scope module lfsr $end
$var wire 64 * key [63:0] $end
$var wire 23 + z_next [22:0] $end
$var wire 23 , z [22:0] $end
$var wire 22 - y_next [21:0] $end
$var wire 22 . y [21:0] $end
$var wire 19 / x_next [18:0] $end
$var wire 19 0 x [18:0] $end
$var wire 1 1 majority $end
$var wire 64 2 key_next [63:0] $end
$scope function lfsr1 $end
$var reg 20 3 in [19:0] $end
$upscope $end
$scope function lfsr2 $end
$var reg 23 4 in [22:0] $end
$upscope $end
$scope function lfsr3 $end
$var reg 24 5 in [23:0] $end
$upscope $end
$scope function maj $end
$var reg 1 6 x $end
$var reg 1 7 y $end
$var reg 1 8 z $end
$upscope $end
$upscope $end
$upscope $end
$upscope $end
$enddefinitions $end
#0
$dumpvars
x8
x7
x6
bx 5
bx 4
bx 3
bx 2
x1
bx 0
bx /
bx .
bx -
bx ,
bx +
bx *
bx )
x(
bx '
b111100010101011100011100100110101111011111110110011110011000 &
0%
1$
1#
b111100010101011100011100100110101111011111110110011110011000 "
x!
$end
#10
b1111000101010111000 +
b1101100111100110000 /
b111100010101011100011001001101011110111101101100111100110000 '
b111100010101011100011001001101011110111101101100111100110000 2
b1100100110101111011110 -
11
08
17
16
b1110110011110011000 3
b1110010011010111101111 4
b100001111000101010111000 5
b1110110011110011000 0
b1110010011010111101111 .
b1111000101010111000 ,
b111100010101011100011100100110101111011111110110011110011000 )
b111100010101011100011100100110101111011111110110011110011000 *
1%
#20
0%
0#
#30
b11110001010101110001 +
b1111000101010111000 5
01
07
b1101100111100110000 /
b11101100111100110000 3
b1111000101010111000110010011010111101111001101100111100110000 '
b1111000101010111000110010011010111101111001101100111100110000 2
b1001001101011110111100 -
b1100100110101111011110 4
b1101100111100110000 0
b1100100110101111011110 .
b111100010101011100011001001101011110111101101100111100110000 )
b111100010101011100011001001101011110111101101100111100110000 *
0!
0(
1%
0$
#40
0%
#50
b1011001111001100000 /
b1101100111100110000 3
11
18
17
b10011010111101111001 -
b1001001101011110111100 4
b11110001010101110001000100110101111011110011011001111001100000 '
b11110001010101110001000100110101111011110011011001111001100000 2
b111100010101011100010 +
b11110001010101110001 5
b1001001101011110111100 .
b11110001010101110001 ,
b1111000101010111000110010011010111101111001101100111100110000 )
b1111000101010111000110010011010111101111001101100111100110000 *
1!
1%
1$
#60
0%
#70
01
08
06
b110011110011000000 /
b1011001111001100000 3
b10011010111101111001 -
b10010011010111101111001 4
b111100010101011100010000100110101111011110010110011110011000000 '
b111100010101011100010000100110101111011110010110011110011000000 2
b1111000101010111000100 +
b111100010101011100010 5
b1011001111001100000 0
b10011010111101111001 .
b111100010101011100010 ,
b11110001010101110001000100110101111011110011011001111001100000 )
b11110001010101110001000100110101111011110011011001111001100000 *
1(
1!
1%
0$
#80
0%
#90
b100110101111011110010 -
b10011010111101111001 4
11
18
b110011110011000000 /
b10110011110011000000 3
b1111000101010111000100101001101011110111100100110011110011000000 '
b1111000101010111000100101001101011110111100100110011110011000000 2
b11110001010101110001001 +
b1111000101010111000100 5
b110011110011000000 0
b1111000101010111000100 ,
b111100010101011100010000100110101111011110010110011110011000000 )
b111100010101011100010000100110101111011110010110011110011000000 *
0(
1!
1%
1$
#100
0%
#110
b1100111100110000001 /
b110011110011000000 3
01
08
b100110101111011110010 -
b10100110101111011110010 4
b1110001010101110001001001001101011110111100101100111100110000001 '
b1110001010101110001001001001101011110111100101100111100110000001 2
b11100010101011100010010 +
b11110001010101110001001 5
b100110101111011110010 .
b11110001010101110001001 ,
b1111000101010111000100101001101011110111100100110011110011000000 )
b1111000101010111000100101001101011110111100100110011110011000000 *
1(
1!
1%
0$
#120
0%
#130
b1001101011110111100101 -
b100110101111011110010 4
11
18
16
b1001111001100000011 /
b1100111100110000001 3
b1100010101011100010010110011010111101111001011001111001100000011 '
b1100010101011100010010110011010111101111001011001111001100000011 2
b11000101010111000100101 +
b11100010101011100010010 5
b1100111100110000001 0
b11100010101011100010010 ,
b1110001010101110001001001001101011110111100101100111100110000001 )
b1110001010101110001001001001101011110111100101100111100110000001 *
0(
1!
1%
1$
#140
0%
#150
b11110011000000110 /
b1001111001100000011 3
b11010111101111001011 -
b1001101011110111100101 4
b1000101010111000100101000110101111011110010110011110011000000110 '
b1000101010111000100101000110101111011110010110011110011000000110 2
b10001010101110001001010 +
b11000101010111000100101 5
b1001111001100000011 0
b1001101011110111100101 .
b11000101010111000100101 ,
b1100010101011100010010110011010111101111001011001111001100000011 )
b1100010101011100010010110011010111101111001011001111001100000011 *
0!
1(
1%
#160
0%
#170
01
07
06
b111100110000001100 /
b11110011000000110 3
b110101111011110010110 -
b11010111101111001011 4
b1000101010111000100101001101011110111100101100111100110000001100 '
b1000101010111000100101001101011110111100101100111100110000001100 2
b10001010101110001001010 +
b110001010101110001001010 5
b11110011000000110 0
b11010111101111001011 .
b10001010101110001001010 ,
b1000101010111000100101000110101111011110010110011110011000000110 )
b1000101010111000100101000110101111011110010110011110011000000110 *
1%
#180
0%
#190
b10101011100010010101 +
b10001010101110001001010 5
11
17
b111100110000001100 /
b10111100110000001100 3
b1010101110001001010111010111101111001011010111100110000001100 '
b1010101110001001010111010111101111001011010111100110000001100 2
b1101011110111100101101 -
b110101111011110010110 4
b111100110000001100 0
b110101111011110010110 .
b1000101010111000100101001101011110111100101100111100110000001100 )
b1000101010111000100101001101011110111100101100111100110000001100 *
1%
#200
0%
#210
b1111001100000011000 /
b111100110000001100 3
01
08
b1101011110111100101101 -
b11101011110111100101101 4
b10101011100010010101111010111101111001011011111001100000011000 '
b10101011100010010101111010111101111001011011111001100000011000 2
b101010111000100101011 +
b10101011100010010101 5
b1101011110111100101101 .
b10101011100010010101 ,
b1010101110001001010111010111101111001011010111100110000001100 )
b1010101110001001010111010111101111001011010111100110000001100 *
1%
#220
0%
#230
b1110011000000110001 /
b1111001100000011000 3
b101010111000100101011111010111101111001011011110011000000110001 '
b101010111000100101011111010111101111001011011110011000000110001 2
b1010101110001001010111 +
b101010111000100101011 5
b1111001100000011000 0
b101010111000100101011 ,
b10101011100010010101111010111101111001011011111001100000011000 )
b10101011100010010101111010111101111001011011111001100000011000 *
1!
0(
1%
#240
0%
#250
b1100110000001100010 /
b1110011000000110001 3
b1010101110001001010111111010111101111001011011100110000001100010 '
b1010101110001001010111111010111101111001011011100110000001100010 2
b10101011100010010101111 +
b1010101110001001010111 5
b1110011000000110001 0
b1010101110001001010111 ,
b101010111000100101011111010111101111001011011110011000000110001 )
b101010111000100101011111010111101111001011011110011000000110001 *
1%
#260
0%
#270
b1010111101111001011010 -
b1101011110111100101101 4
11
18
b1100110000001100010 /
b11100110000001100010 3
b101011100010010101111110101111011110010110101100110000001100010 '
b101011100010010101111110101111011110010110101100110000001100010 2
b1010111000100101011111 +
b10101011100010010101111 5
b1100110000001100010 0
b10101011100010010101111 ,
b1010101110001001010111111010111101111001011011100110000001100010 )
b1010101110001001010111111010111101111001011011100110000001100010 *
0!
1(
1%
#280
0%
#290
b1001100000011000101 /
b1100110000001100010 3
01
08
b1010111101111001011010 -
b11010111101111001011010 4
b1010111000100101011111110101111011110010110101001100000011000101 '
b1010111000100101011111110101111011110010110101001100000011000101 2
b10101110001001010111111 +
b1010111000100101011111 5
b1010111101111001011010 .
b1010111000100101011111 ,
b101011100010010101111110101111011110010110101100110000001100010 )
b101011100010010101111110101111011110010110101100110000001100010 *
1!
0(
1%
#300
0%
#310
b11000000110001011 /
b1001100000011000101 3
b101110001001010111111110101111011110010110100011000000110001011 '
b101110001001010111111110101111011110010110100011000000110001011 2
b1011100010010101111111 +
b10101110001001010111111 5
b1001100000011000101 0
b10101110001001010111111 ,
b1010111000100101011111110101111011110010110101001100000011000101 )
b1010111000100101011111110101111011110010110101001100000011000101 *
0!
1(
1%
#320
0%
#330
b101111011110010110101 -
b1010111101111001011010 4
11
18
16
b110000001100010111 /
b11000000110001011 3
b1011100010010101111111101011110111100101101010110000001100010111 '
b1011100010010101111111101011110111100101101010110000001100010111 2
b10111000100101011111111 +
b1011100010010101111111 5
b11000000110001011 0
b1011100010010101111111 ,
b101110001001010111111110101111011110010110100011000000110001011 )
b101110001001010111111110101111011110010110100011000000110001011 *
1%
#340
0%
#350
08
b1100000011000101110 /
b110000001100010111 3
b1011110111100101101011 -
b101111011110010110101 4
b1011100010010101111111110111101111001011010111100000011000101110 '
b1011100010010101111111110111101111001011010111100000011000101110 2
b10111000100101011111111 +
b110111000100101011111111 5
b110000001100010111 0
b101111011110010110101 .
b10111000100101011111111 ,
b1011100010010101111111101011110111100101101010110000001100010111 )
b1011100010010101111111101011110111100101101010110000001100010111 *
1%
